sherlock-holmes-sentiment-analysis
…
What is a Sentiment?

# What are sentiments?
sentiments

## # A tibble: 27,314 x 4
##           word sentiment lexicon score
##          <chr>     <chr>   <chr> <int>
##  1      abacus     trust     nrc    NA
##  2     abandon      fear     nrc    NA
##  3     abandon  negative     nrc    NA
##  4     abandon   sadness     nrc    NA
##  5   abandoned     anger     nrc    NA
##  6   abandoned      fear     nrc    NA
##  7   abandoned  negative     nrc    NA
##  8   abandoned   sadness     nrc    NA
##  9 abandonment     anger     nrc    NA
## 10 abandonment      fear     nrc    NA
## # ... with 27,304 more rows

# Sentiments values
get_sentiments("bing")

## # A tibble: 6,788 x 2
##           word sentiment
##          <chr>     <chr>
##  1     2-faced  negative
##  2     2-faces  negative
##  3          a+  positive
##  4    abnormal  negative
##  5     abolish  negative
##  6  abominable  negative
##  7  abominably  negative
##  8   abominate  negative
##  9 abomination  negative
## 10       abort  negative
## # ... with 6,778 more rows
